{
   "annotations": {
      "list": [ ]
   },
   "editable": true,
   "gnetId": null,
   "graphTooltip": 0,
   "hideControls": false,
   "links": [ ],
   "refresh": "10s",
   "rows": [
      {
         "collapse": false,
         "height": "250px",
         "panels": [
            {
               "aliasColors": { },
               "bars": false,
               "dashLength": 10,
               "dashes": false,
               "datasource": "$datasource",
               "fill": 10,
               "id": 1,
               "interval": "1m",
               "legend": {
                  "alignAsTable": true,
                  "avg": false,
                  "current": false,
                  "max": false,
                  "min": false,
                  "rightSide": true,
                  "show": true,
                  "total": false,
                  "values": false
               },
               "lines": true,
               "linewidth": 0,
               "links": [ ],
               "nullPointMode": "null as zero",
               "percentage": false,
               "pointradius": 5,
               "points": false,
               "renderer": "flot",
               "seriesOverrides": [
                  {
                     "alias": "quota - requests",
                     "color": "#F2495C",
                     "dashes": true,
                     "fill": 0,
                     "hiddenSeries": true,
                     "hideTooltip": true,
                     "legend": true,
                     "linewidth": 2,
                     "stack": false
                  },
                  {
                     "alias": "quota - limits",
                     "color": "#FF9830",
                     "dashes": true,
                     "fill": 0,
                     "hiddenSeries": true,
                     "hideTooltip": true,
                     "legend": true,
                     "linewidth": 2,
                     "stack": false
                  }
               ],
               "spaceLength": 10,
               "span": 12,
               "stack": true,
               "steppedLine": false,
               "targets": [
                  {
                     "expr": "sum(\n  node_namespace_pod_container:container_cpu_usage_seconds_total:sum_irate{cluster=\"$cluster\", namespace=\"$namespace\"}\n* on(namespace,pod)\n  group_left(workload, workload_type) namespace_workload_pod:kube_pod_owner:relabel{cluster=\"$cluster\", namespace=\"$namespace\", workload_type=\"$type\"}\n) by (workload, workload_type)\n",
                     "format": "time_series",
                     "intervalFactor": 2,
                     "legendFormat": "{{workload}} - {{workload_type}}",
                     "legendLink": null
                  },
                  {
                     "expr": "scalar(kube_resourcequota{cluster=\"$cluster\", namespace=\"$namespace\", type=\"hard\",resource=\"requests.cpu\"})",
                     "format": "time_series",
                     "intervalFactor": 2,
                     "legendFormat": "quota - requests",
                     "legendLink": null
                  },
                  {
                     "expr": "scalar(kube_resourcequota{cluster=\"$cluster\", namespace=\"$namespace\", type=\"hard\",resource=\"limits.cpu\"})",
                     "format": "time_series",
                     "intervalFactor": 2,
                     "legendFormat": "quota - limits",
                     "legendLink": null
                  }
               ],
               "thresholds": [ ],
               "timeFrom": null,
               "timeShift": null,
               "title": "CPU Usage",
               "tooltip": {
                  "shared": false,
                  "sort": 2,
                  "value_type": "individual"
               },
               "type": "graph",
               "xaxis": {
                  "buckets": null,
                  "mode": "time",
                  "name": null,
                  "show": true,
                  "values": [ ]
               },
               "yaxes": [
                  {
                     "format": "short",
                     "label": null,
                     "logBase": 1,
                     "max": null,
                     "min": 0,
                     "show": true
                  },
                  {
                     "format": "short",
                     "label": null,
                     "logBase": 1,
                     "max": null,
                     "min": null,
                     "show": false
                  }
               ]
            }
         ],
         "repeat": null,
         "repeatIteration": null,
         "repeatRowId": null,
         "showTitle": true,
         "title": "CPU Usage",
         "titleSize": "h6"
      },
      {
         "collapse": false,
         "height": "250px",
         "panels": [
            {
               "aliasColors": { },
               "bars": false,
               "dashLength": 10,
               "dashes": false,
               "datasource": "$datasource",
               "fill": 1,
               "id": 2,
               "interval": "1m",
               "legend": {
                  "alignAsTable": true,
                  "avg": false,
                  "current": false,
                  "max": false,
                  "min": false,
                  "rightSide": true,
                  "show": true,
                  "total": false,
                  "values": false
               },
               "lines": true,
               "linewidth": 1,
               "links": [ ],
               "nullPointMode": "null as zero",
               "percentage": false,
               "pointradius": 5,
               "points": false,
               "renderer": "flot",
               "seriesOverrides": [ ],
               "spaceLength": 10,
               "span": 12,
               "stack": false,
               "steppedLine": false,
               "styles": [
                  {
                     "alias": "Time",
                     "dateFormat": "YYYY-MM-DD HH:mm:ss",
                     "pattern": "Time",
                     "type": "hidden"
                  },
                  {
                     "alias": "Running Pods",
                     "colorMode": null,
                     "colors": [ ],
                     "dateFormat": "YYYY-MM-DD HH:mm:ss",
                     "decimals": 0,
                     "link": false,
                     "linkTargetBlank": false,
                     "linkTooltip": "Drill down",
                     "linkUrl": "",
                     "pattern": "Value #A",
                     "thresholds": [ ],
                     "type": "number",
                     "unit": "short"
                  },
                  {
                     "alias": "CPU Usage",
                     "colorMode": null,
                     "colors": [ ],
                     "dateFormat": "YYYY-MM-DD HH:mm:ss",
                     "decimals": 2,
                     "link": false,
                     "linkTargetBlank": false,
                     "linkTooltip": "Drill down",
                     "linkUrl": "",
                     "pattern": "Value #B",
                     "thresholds": [ ],
                     "type": "number",
                     "unit": "short"
                  },
                  {
                     "alias": "CPU Requests",
                     "colorMode": null,
                     "colors": [ ],
                     "dateFormat": "YYYY-MM-DD HH:mm:ss",
                     "decimals": 2,
                     "link": false,
                     "linkTargetBlank": false,
                     "linkTooltip": "Drill down",
                     "linkUrl": "",
                     "pattern": "Value #C",
                     "thresholds": [ ],
                     "type": "number",
                     "unit": "short"
                  },
                  {
                     "alias": "CPU Requests %",
                     "colorMode": null,
                     "colors": [ ],
                     "dateFormat": "YYYY-MM-DD HH:mm:ss",
                     "decimals": 2,
                     "link": false,
                     "linkTargetBlank": false,
                     "linkTooltip": "Drill down",
                     "linkUrl": "",
                     "pattern": "Value #D",
                     "thresholds": [ ],
                     "type": "number",
                     "unit": "percentunit"
                  },
                  {
                     "alias": "CPU Limits",
                     "colorMode": null,
                     "colors": [ ],
                     "dateFormat": "YYYY-MM-DD HH:mm:ss",
                     "decimals": 2,
                     "link": false,
                     "linkTargetBlank": false,
                     "linkTooltip": "Drill down",
                     "linkUrl": "",
                     "pattern": "Value #E",
                     "thresholds": [ ],
                     "type": "number",
                     "unit": "short"
                  },
                  {
                     "alias": "CPU Limits %",
                     "colorMode": null,
                     "colors": [ ],
                     "dateFormat": "YYYY-MM-DD HH:mm:ss",
                     "decimals": 2,
                     "link": false,
                     "linkTargetBlank": false,
                     "linkTooltip": "Drill down",
                     "linkUrl": "",
                     "pattern": "Value #F",
                     "thresholds": [ ],
                     "type": "number",
                     "unit": "percentunit"
                  },
                  {
                     "alias": "Workload",
                     "colorMode": null,
                     "colors": [ ],
                     "dateFormat": "YYYY-MM-DD HH:mm:ss",
                     "decimals": 2,
                     "link": true,
                     "linkTargetBlank": false,
                     "linkTooltip": "Drill down",
                     "linkUrl": "/d/a164a7f0339f99e89cea5cb47e9be617/k8s-resources-workload?var-datasource=$datasource&var-cluster=$cluster&var-namespace=$namespace&var-workload=$__cell&var-type=$__cell_2",
                     "pattern": "workload",
                     "thresholds": [ ],
                     "type": "number",
                     "unit": "short"
                  },
                  {
                     "alias": "Workload Type",
                     "colorMode": null,
                     "colors": [ ],
                     "dateFormat": "YYYY-MM-DD HH:mm:ss",
                     "decimals": 2,
                     "link": false,
                     "linkTargetBlank": false,
                     "linkTooltip": "Drill down",
                     "linkUrl": "",
                     "pattern": "workload_type",
                     "thresholds": [ ],
                     "type": "number",
                     "unit": "short"
                  },
                  {
                     "alias": "",
                     "colorMode": null,
                     "colors": [ ],
                     "dateFormat": "YYYY-MM-DD HH:mm:ss",
                     "decimals": 2,
                     "pattern": "/.*/",
                     "thresholds": [ ],
                     "type": "string",
                     "unit": "short"
                  }
               ],
               "targets": [
                  {
                     "expr": "count(namespace_workload_pod:kube_pod_owner:relabel{cluster=\"$cluster\", namespace=\"$namespace\", workload_type=\"$type\"}) by (workload, workload_type)",
                     "format": "table",
                     "instant": true,
                     "intervalFactor": 2,
                     "legendFormat": "",
                     "refId": "A"
                  },
                  {
                     "expr": "sum(\n  node_namespace_pod_container:container_cpu_usage_seconds_total:sum_irate{cluster=\"$cluster\", namespace=\"$namespace\"}\n* on(namespace,pod)\n  group_left(workload, workload_type) namespace_workload_pod:kube_pod_owner:relabel{cluster=\"$cluster\", namespace=\"$namespace\", workload_type=\"$type\"}\n) by (workload, workload_type)\n",
                     "format": "table",
                     "instant": true,
                     "intervalFactor": 2,
                     "legendFormat": "",
                     "refId": "B"
                  },
                  {
                     "expr": "sum(\n  kube_pod_container_resource_requests{job=\"kube-state-metrics\", cluster=\"$cluster\", namespace=\"$namespace\", resource=\"cpu\"}\n* on(namespace,pod)\n  group_left(workload, workload_type) namespace_workload_pod:kube_pod_owner:relabel{cluster=\"$cluster\", namespace=\"$namespace\", workload_type=\"$type\"}\n) by (workload, workload_type)\n",
                     "format": "table",
                     "instant": true,
                     "intervalFactor": 2,
                     "legendFormat": "",
                     "refId": "C"
                  },
                  {
                     "expr": "sum(\n  node_namespace_pod_container:container_cpu_usage_seconds_total:sum_irate{cluster=\"$cluster\", namespace=\"$namespace\"}\n* on(namespace,pod)\n  group_left(workload, workload_type) namespace_workload_pod:kube_pod_owner:relabel{cluster=\"$cluster\", namespace=\"$namespace\", workload_type=\"$type\"}\n) by (workload, workload_type)\n/sum(\n  kube_pod_container_resource_requests{job=\"kube-state-metrics\", cluster=\"$cluster\", namespace=\"$namespace\", resource=\"cpu\"}\n* on(namespace,pod)\n  group_left(workload, workload_type) namespace_workload_pod:kube_pod_owner:relabel{cluster=\"$cluster\", namespace=\"$namespace\", workload_type=\"$type\"}\n) by (workload, workload_type)\n",
                     "format": "table",
                     "instant": true,
                     "intervalFactor": 2,
                     "legendFormat": "",
                     "refId": "D"
                  },
                  {
                     "expr": "sum(\n  kube_pod_container_resource_limits{job=\"kube-state-metrics\", cluster=\"$cluster\", namespace=\"$namespace\", resource=\"cpu\"}\n* on(namespace,pod)\n  group_left(workload, workload_type) namespace_workload_pod:kube_pod_owner:relabel{cluster=\"$cluster\", namespace=\"$namespace\", workload_type=\"$type\"}\n) by (workload, workload_type)\n",
                     "format": "table",
                     "instant": true,
                     "intervalFactor": 2,
                     "legendFormat": "",
                     "refId": "E"
                  },
                  {
                     "expr": "sum(\n  node_namespace_pod_container:container_cpu_usage_seconds_total:sum_irate{cluster=\"$cluster\", namespace=\"$namespace\"}\n* on(namespace,pod)\n  group_left(workload, workload_type) namespace_workload_pod:kube_pod_owner:relabel{cluster=\"$cluster\", namespace=\"$namespace\", workload_type=\"$type\"}\n) by (workload, workload_type)\n/sum(\n  kube_pod_container_resource_limits{job=\"kube-state-metrics\", cluster=\"$cluster\", namespace=\"$namespace\", resource=\"cpu\"}\n* on(namespace,pod)\n  group_left(workload, workload_type) namespace_workload_pod:kube_pod_owner:relabel{cluster=\"$cluster\", namespace=\"$namespace\", workload_type=\"$type\"}\n) by (workload, workload_type)\n",
                     "format": "table",
                     "instant": true,
                     "intervalFactor": 2,
                     "legendFormat": "",
                     "refId": "F"
                  }
               ],
               "thresholds": [ ],
               "timeFrom": null,
               "timeShift": null,
               "title": "CPU Quota",
               "tooltip": {
                  "shared": false,
                  "sort": 2,
                  "value_type": "individual"
               },
               "transform": "table",
               "type": "table",
               "xaxis": {
                  "buckets": null,
                  "mode": "time",
                  "name": null,
                  "show": true,
                  "values": [ ]
               },
               "yaxes": [
                  {
                     "format": "short",
                     "label": null,
                     "logBase": 1,
                     "max": null,
                     "min": 0,
                     "show": true
                  },
                  {
                     "format": "short",
                     "label": null,
                     "logBase": 1,
                     "max": null,
                     "min": null,
                     "show": false
                  }
               ]
            }
         ],
         "repeat": null,
         "repeatIteration": null,
         "repeatRowId": null,
         "showTitle": true,
         "title": "CPU Quota",
         "titleSize": "h6"
      },
      {
         "collapse": false,
         "height": "250px",
         "panels": [
            {
               "aliasColors": { },
               "bars": false,
               "dashLength": 10,
               "dashes": false,
               "datasource": "$datasource",
               "fill": 10,
               "id": 3,
               "interval": "1m",
               "legend": {
                  "alignAsTable": true,
                  "avg": false,
                  "current": false,
                  "max": false,
                  "min": false,
                  "rightSide": true,
                  "show": true,
                  "total": false,
                  "values": false
               },
               "lines": true,
               "linewidth": 0,
               "links": [ ],
               "nullPointMode": "null as zero",
               "percentage": false,
               "pointradius": 5,
               "points": false,
               "renderer": "flot",
               "seriesOverrides": [
                  {
                     "alias": "quota - requests",
                     "color": "#F2495C",
                     "dashes": true,
                     "fill": 0,
                     "hiddenSeries": true,
                     "hideTooltip": true,
                     "legend": true,
                     "linewidth": 2,
                     "stack": false
                  },
                  {
                     "alias": "quota - limits",
                     "color": "#FF9830",
                     "dashes": true,
                     "fill": 0,
                     "hiddenSeries": true,
                     "hideTooltip": true,
                     "legend": true,
                     "linewidth": 2,
                     "stack": false
                  }
               ],
               "spaceLength": 10,
               "span": 12,
               "stack": true,
               "steppedLine": false,
               "targets": [
                  {
                     "expr": "sum(\n    container_memory_working_set_bytes{job=\"kubelet\", cluster=\"$cluster\", namespace=\"$namespace\", container!=\"\", image!=\"\"}\n  * on(namespace,pod)\n    group_left(workload, workload_type) namespace_workload_pod:kube_pod_owner:relabel{cluster=\"$cluster\", namespace=\"$namespace\", workload_type=\"$type\"}\n) by (workload, workload_type)\n",
                     "format": "time_series",
                     "intervalFactor": 2,
                     "legendFormat": "{{workload}} - {{workload_type}}",
                     "legendLink": null
                  },
                  {
                     "expr": "scalar(kube_resourcequota{cluster=\"$cluster\", namespace=\"$namespace\", type=\"hard\",resource=\"requests.memory\"})",
                     "format": "time_series",
                     "intervalFactor": 2,
                     "legendFormat": "quota - requests",
                     "legendLink": null
                  },
                  {
                     "expr": "scalar(kube_resourcequota{cluster=\"$cluster\", namespace=\"$namespace\", type=\"hard\",resource=\"limits.memory\"})",
                     "format": "time_series",
                     "intervalFactor": 2,
                     "legendFormat": "quota - limits",
                     "legendLink": null
                  }
               ],
               "thresholds": [ ],
               "timeFrom": null,
               "timeShift": null,
               "title": "Memory Usage",
               "tooltip": {
                  "shared": false,
                  "sort": 2,
                  "value_type": "individual"
               },
               "type": "graph",
               "xaxis": {
                  "buckets": null,
                  "mode": "time",
                  "name": null,
                  "show": true,
                  "values": [ ]
               },
               "yaxes": [
                  {
                     "format": "bytes",
                     "label": null,
                     "logBase": 1,
                     "max": null,
                     "min": 0,
                     "show": true
                  },
                  {
                     "format": "short",
                     "label": null,
                     "logBase": 1,
                     "max": null,
                     "min": null,
                     "show": false
                  }
               ]
            }
         ],
         "repeat": null,
         "repeatIteration": null,
         "repeatRowId": null,
         "showTitle": true,
         "title": "Memory Usage",
         "titleSize": "h6"
      },
      {
         "collapse": false,
         "height": "250px",
         "panels": [
            {
               "aliasColors": { },
               "bars": false,
               "dashLength": 10,
               "dashes": false,
               "datasource": "$datasource",
               "fill": 1,
               "id": 4,
               "interval": "1m",
               "legend": {
                  "alignAsTable": true,
                  "avg": false,
                  "current": false,
                  "max": false,
                  "min": false,
                  "rightSide": true,
                  "show": true,
                  "total": false,
                  "values": false
               },
               "lines": true,
               "linewidth": 1,
               "links": [ ],
               "nullPointMode": "null as zero",
               "percentage": false,
               "pointradius": 5,
               "points": false,
               "renderer": "flot",
               "seriesOverrides": [ ],
               "spaceLength": 10,
               "span": 12,
               "stack": false,
               "steppedLine": false,
               "styles": [
                  {
                     "alias": "Time",
                     "dateFormat": "YYYY-MM-DD HH:mm:ss",
                     "pattern": "Time",
                     "type": "hidden"
                  },
                  {
                     "alias": "Running Pods",
                     "colorMode": null,
                     "colors": [ ],
                     "dateFormat": "YYYY-MM-DD HH:mm:ss",
                     "decimals": 0,
                     "link": false,
                     "linkTargetBlank": false,
                     "linkTooltip": "Drill down",
                     "linkUrl": "",
                     "pattern": "Value #A",
                     "thresholds": [ ],
                     "type": "number",
                     "unit": "short"
                  },
                  {
                     "alias": "Memory Usage",
                     "colorMode": null,
                     "colors": [ ],
                     "dateFormat": "YYYY-MM-DD HH:mm:ss",
                     "decimals": 2,
                     "link": false,
                     "linkTargetBlank": false,
                     "linkTooltip": "Drill down",
                     "linkUrl": "",
                     "pattern": "Value #B",
                     "thresholds": [ ],
                     "type": "number",
                     "unit": "bytes"
                  },
                  {
                     "alias": "Memory Requests",
                     "colorMode": null,
                     "colors": [ ],
                     "dateFormat": "YYYY-MM-DD HH:mm:ss",
                     "decimals": 2,
                     "link": false,
                     "linkTargetBlank": false,
                     "linkTooltip": "Drill down",
                     "linkUrl": "",
                     "pattern": "Value #C",
                     "thresholds": [ ],
                     "type": "number",
                     "unit": "bytes"
                  },
                  {
                     "alias": "Memory Requests %",
                     "colorMode": null,
                     "colors": [ ],
                     "dateFormat": "YYYY-MM-DD HH:mm:ss",
                     "decimals": 2,
                     "link": false,
                     "linkTargetBlank": false,
                     "linkTooltip": "Drill down",
                     "linkUrl": "",
                     "pattern": "Value #D",
                     "thresholds": [ ],
                     "type": "number",
                     "unit": "percentunit"
                  },
                  {
                     "alias": "Memory Limits",
                     "colorMode": null,
                     "colors": [ ],
                     "dateFormat": "YYYY-MM-DD HH:mm:ss",
                     "decimals": 2,
                     "link": false,
                     "linkTargetBlank": false,
                     "linkTooltip": "Drill down",
                     "linkUrl": "",
                     "pattern": "Value #E",
                     "thresholds": [ ],
                     "type": "number",
                     "unit": "bytes"
                  },
                  {
                     "alias": "Memory Limits %",
                     "colorMode": null,
                     "colors": [ ],
                     "dateFormat": "YYYY-MM-DD HH:mm:ss",
                     "decimals": 2,
                     "link": false,
                     "linkTargetBlank": false,
                     "linkTooltip": "Drill down",
                     "linkUrl": "",
                     "pattern": "Value #F",
                     "thresholds": [ ],
                     "type": "number",
                     "unit": "percentunit"
                  },
                  {
                     "alias": "Workload",
                     "colorMode": null,
                     "colors": [ ],
                     "dateFormat": "YYYY-MM-DD HH:mm:ss",
                     "decimals": 2,
                     "link": true,
                     "linkTargetBlank": false,
                     "linkTooltip": "Drill down",
                     "linkUrl": "/d/a164a7f0339f99e89cea5cb47e9be617/k8s-resources-workload?var-datasource=$datasource&var-cluster=$cluster&var-namespace=$namespace&var-workload=$__cell&var-type=$__cell_2",
                     "pattern": "workload",
                     "thresholds": [ ],
                     "type": "number",
                     "unit": "short"
                  },
                  {
                     "alias": "Workload Type",
                     "colorMode": null,
                     "colors": [ ],
                     "dateFormat": "YYYY-MM-DD HH:mm:ss",
                     "decimals": 2,
                     "link": false,
                     "linkTargetBlank": false,
                     "linkTooltip": "Drill down",
                     "linkUrl": "",
                     "pattern": "workload_type",
                     "thresholds": [ ],
                     "type": "number",
                     "unit": "short"
                  },
                  {
                     "alias": "",
                     "colorMode": null,
                     "colors": [ ],
                     "dateFormat": "YYYY-MM-DD HH:mm:ss",
                     "decimals": 2,
                     "pattern": "/.*/",
                     "thresholds": [ ],
                     "type": "string",
                     "unit": "short"
                  }
               ],
               "targets": [
                  {
                     "expr": "count(namespace_workload_pod:kube_pod_owner:relabel{cluster=\"$cluster\", namespace=\"$namespace\", workload_type=\"$type\"}) by (workload, workload_type)",
                     "format": "table",
                     "instant": true,
                     "intervalFactor": 2,
                     "legendFormat": "",
                     "refId": "A"
                  },
                  {
                     "expr": "sum(\n    container_memory_working_set_bytes{job=\"kubelet\", cluster=\"$cluster\", namespace=\"$namespace\", container!=\"\", image!=\"\"}\n  * on(namespace,pod)\n    group_left(workload, workload_type) namespace_workload_pod:kube_pod_owner:relabel{cluster=\"$cluster\", namespace=\"$namespace\", workload_type=\"$type\"}\n) by (workload, workload_type)\n",
                     "format": "table",
                     "instant": true,
                     "intervalFactor": 2,
                     "legendFormat": "",
                     "refId": "B"
                  },
                  {
                     "expr": "sum(\n  kube_pod_container_resource_requests{job=\"kube-state-metrics\", cluster=\"$cluster\", namespace=\"$namespace\", resource=\"memory\"}\n* on(namespace,pod)\n  group_left(workload, workload_type) namespace_workload_pod:kube_pod_owner:relabel{cluster=\"$cluster\", namespace=\"$namespace\", workload_type=\"$type\"}\n) by (workload, workload_type)\n",
                     "format": "table",
                     "instant": true,
                     "intervalFactor": 2,
                     "legendFormat": "",
                     "refId": "C"
                  },
                  {
                     "expr": "sum(\n    container_memory_working_set_bytes{job=\"kubelet\", cluster=\"$cluster\", namespace=\"$namespace\", container!=\"\", image!=\"\"}\n  * on(namespace,pod)\n    group_left(workload, workload_type) namespace_workload_pod:kube_pod_owner:relabel{cluster=\"$cluster\", namespace=\"$namespace\", workload_type=\"$type\"}\n) by (workload, workload_type)\n/sum(\n  kube_pod_container_resource_requests{job=\"kube-state-metrics\", cluster=\"$cluster\", namespace=\"$namespace\", resource=\"memory\"}\n* on(namespace,pod)\n  group_left(workload, workload_type) namespace_workload_pod:kube_pod_owner:relabel{cluster=\"$cluster\", namespace=\"$namespace\", workload_type=\"$type\"}\n) by (workload, workload_type)\n",
                     "format": "table",
                     "instant": true,
                     "intervalFactor": 2,
                     "legendFormat": "",
                     "refId": "D"
                  },
                  {
                     "expr": "sum(\n  kube_pod_container_resource_limits{job=\"kube-state-metrics\", cluster=\"$cluster\", namespace=\"$namespace\", resource=\"memory\"}\n* on(namespace,pod)\n  group_left(workload, workload_type) namespace_workload_pod:kube_pod_owner:relabel{cluster=\"$cluster\", namespace=\"$namespace\", workload_type=\"$type\"}\n) by (workload, workload_type)\n",
                     "format": "table",
                     "instant": true,
                     "intervalFactor": 2,
                     "legendFormat": "",
                     "refId": "E"
                  },
                  {
                     "expr": "sum(\n    container_memory_working_set_bytes{job=\"kubelet\", cluster=\"$cluster\", namespace=\"$namespace\", container!=\"\", image!=\"\"}\n  * on(namespace,pod)\n    group_left(workload, workload_type) namespace_workload_pod:kube_pod_owner:relabel{cluster=\"$cluster\", namespace=\"$namespace\", workload_type=\"$type\"}\n) by (workload, workload_type)\n/sum(\n  kube_pod_container_resource_limits{job=\"kube-state-metrics\", cluster=\"$cluster\", namespace=\"$namespace\", resource=\"memory\"}\n* on(namespace,pod)\n  group_left(workload, workload_type) namespace_workload_pod:kube_pod_owner:relabel{cluster=\"$cluster\", namespace=\"$namespace\", workload_type=\"$type\"}\n) by (workload, workload_type)\n",
                     "format": "table",
                     "instant": true,
                     "intervalFactor": 2,
                     "legendFormat": "",
                     "refId": "F"
                  }
               ],
               "thresholds": [ ],
               "timeFrom": null,
               "timeShift": null,
               "title": "Memory Quota",
               "tooltip": {
                  "shared": false,
                  "sort": 2,
                  "value_type": "individual"
               },
               "transform": "table",
               "type": "table",
               "xaxis": {
                  "buckets": null,
                  "mode": "time",
                  "name": null,
                  "show": true,
                  "values": [ ]
               },
               "yaxes": [
                  {
                     "format": "short",
                     "label": null,
                     "logBase": 1,
                     "max": null,
                     "min": 0,
                     "show": true
                  },
                  {
                     "format": "short",
                     "label": null,
                     "logBase": 1,
                     "max": null,
                     "min": null,
                     "show": false
                  }
               ]
            }
         ],
         "repeat": null,
         "repeatIteration": null,
         "repeatRowId": null,
         "showTitle": true,
         "title": "Memory Quota",
         "titleSize": "h6"
      },
      {
         "collapse": false,
         "height": "250px",
         "panels": [
            {
               "aliasColors": { },
               "bars": false,
               "dashLength": 10,
               "dashes": false,
               "datasource": "$datasource",
               "fill": 1,
               "id": 5,
               "interval": "1m",
               "legend": {
                  "alignAsTable": true,
                  "avg": false,
                  "current": false,
                  "max": false,
                  "min": false,
                  "rightSide": true,
                  "show": true,
                  "total": false,
                  "values": false
               },
               "lines": true,
               "linewidth": 1,
               "links": [ ],
               "nullPointMode": "null as zero",
               "percentage": false,
               "pointradius": 5,
               "points": false,
               "renderer": "flot",
               "seriesOverrides": [ ],
               "spaceLength": 10,
               "span": 12,
               "stack": false,
               "steppedLine": false,
               "styles": [
                  {
                     "alias": "Time",
                     "dateFormat": "YYYY-MM-DD HH:mm:ss",
                     "pattern": "Time",
                     "type": "hidden"
                  },
                  {
                     "alias": "Current Receive Bandwidth",
                     "colorMode": null,
                     "colors": [ ],
                     "dateFormat": "YYYY-MM-DD HH:mm:ss",
                     "decimals": 2,
                     "link": false,
                     "linkTargetBlank": false,
                     "linkTooltip": "Drill down",
                     "linkUrl": "",
                     "pattern": "Value #A",
                     "thresholds": [ ],
                     "type": "number",
                     "unit": "Bps"
                  },
                  {
                     "alias": "Current Transmit Bandwidth",
                     "colorMode": null,
                     "colors": [ ],
                     "dateFormat": "YYYY-MM-DD HH:mm:ss",
                     "decimals": 2,
                     "link": false,
                     "linkTargetBlank": false,
                     "linkTooltip": "Drill down",
                     "linkUrl": "",
                     "pattern": "Value #B",
                     "thresholds": [ ],
                     "type": "number",
                     "unit": "Bps"
                  },
                  {
                     "alias": "Rate of Received Packets",
                     "colorMode": null,
                     "colors": [ ],
                     "dateFormat": "YYYY-MM-DD HH:mm:ss",
                     "decimals": 2,
                     "link": false,
                     "linkTargetBlank": false,
                     "linkTooltip": "Drill down",
                     "linkUrl": "",
                     "pattern": "Value #C",
                     "thresholds": [ ],
                     "type": "number",
                     "unit": "pps"
                  },
                  {
                     "alias": "Rate of Transmitted Packets",
                     "colorMode": null,
                     "colors": [ ],
                     "dateFormat": "YYYY-MM-DD HH:mm:ss",
                     "decimals": 2,
                     "link": false,
                     "linkTargetBlank": false,
                     "linkTooltip": "Drill down",
                     "linkUrl": "",
                     "pattern": "Value #D",
                     "thresholds": [ ],
                     "type": "number",
                     "unit": "pps"
                  },
                  {
                     "alias": "Rate of Received Packets Dropped",
                     "colorMode": null,
                     "colors": [ ],
                     "dateFormat": "YYYY-MM-DD HH:mm:ss",
                     "decimals": 2,
                     "link": false,
                     "linkTargetBlank": false,
                     "linkTooltip": "Drill down",
                     "linkUrl": "",
                     "pattern": "Value #E",
                     "thresholds": [ ],
                     "type": "number",
                     "unit": "pps"
                  },
                  {
                     "alias": "Rate of Transmitted Packets Dropped",
                     "colorMode": null,
                     "colors": [ ],
                     "dateFormat": "YYYY-MM-DD HH:mm:ss",
                     "decimals": 2,
                     "link": false,
                     "linkTargetBlank": false,
                     "linkTooltip": "Drill down",
                     "linkUrl": "",
                     "pattern": "Value #F",
                     "thresholds": [ ],
                     "type": "number",
                     "unit": "pps"
                  },
                  {
                     "alias": "Workload",
                     "colorMode": null,
                     "colors": [ ],
                     "dateFormat": "YYYY-MM-DD HH:mm:ss",
                     "decimals": 2,
                     "link": true,
                     "linkTargetBlank": false,
                     "linkTooltip": "Drill down to pods",
                     "linkUrl": "/d/a164a7f0339f99e89cea5cb47e9be617/k8s-resources-workload?var-datasource=$datasource&var-cluster=$cluster&var-namespace=$namespace&var-workload=$__cell&var-type=$type",
                     "pattern": "workload",
                     "thresholds": [ ],
                     "type": "number",
                     "unit": "short"
                  },
                  {
                     "alias": "Workload Type",
                     "colorMode": null,
                     "colors": [ ],
                     "dateFormat": "YYYY-MM-DD HH:mm:ss",
                     "decimals": 2,
                     "link": false,
                     "linkTargetBlank": false,
                     "linkTooltip": "Drill down",
                     "linkUrl": "",
                     "pattern": "workload_type",
                     "thresholds": [ ],
                     "type": "number",
                     "unit": "short"
                  },
                  {
                     "alias": "",
                     "colorMode": null,
                     "colors": [ ],
                     "dateFormat": "YYYY-MM-DD HH:mm:ss",
                     "decimals": 2,
                     "pattern": "/.*/",
                     "thresholds": [ ],
                     "type": "string",
                     "unit": "short"
                  }
               ],
               "targets": [
                  {
                     "expr": "(sum(irate(container_network_receive_bytes_total{job=\"kubelet\", cluster=\"$cluster\", namespace=\"$namespace\"}[$__rate_interval])\n* on (namespace,pod)\ngroup_left(workload,workload_type) namespace_workload_pod:kube_pod_owner:relabel{cluster=\"$cluster\", namespace=\"$namespace\", workload_type=\"$type\"}) by (workload))\n",
                     "format": "table",
                     "instant": true,
                     "intervalFactor": 2,
                     "legendFormat": "",
                     "refId": "A"
                  },
                  {
                     "expr": "(sum(irate(container_network_transmit_bytes_total{job=\"kubelet\", cluster=\"$cluster\", namespace=\"$namespace\"}[$__rate_interval])\n* on (namespace,pod)\ngroup_left(workload,workload_type) namespace_workload_pod:kube_pod_owner:relabel{cluster=\"$cluster\", namespace=\"$namespace\", workload_type=\"$type\"}) by (workload))\n",
                     "format": "table",
                     "instant": true,
                     "intervalFactor": 2,
                     "legendFormat": "",
                     "refId": "B"
                  },
                  {
                     "expr": "(sum(irate(container_network_receive_packets_total{job=\"kubelet\", cluster=\"$cluster\", namespace=\"$namespace\"}[$__rate_interval])\n* on (namespace,pod)\ngroup_left(workload,workload_type) namespace_workload_pod:kube_pod_owner:relabel{cluster=\"$cluster\", namespace=\"$namespace\", workload_type=\"$type\"}) by (workload))\n",
                     "format": "table",
                     "instant": true,
                     "intervalFactor": 2,
                     "legendFormat": "",
                     "refId": "C"
                  },
                  {
                     "expr": "(sum(irate(container_network_transmit_packets_total{job=\"kubelet\", cluster=\"$cluster\", namespace=\"$namespace\"}[$__rate_interval])\n* on (namespace,pod)\ngroup_left(workload,workload_type) namespace_workload_pod:kube_pod_owner:relabel{cluster=\"$cluster\", namespace=\"$namespace\", workload_type=\"$type\"}) by (workload))\n",
                     "format": "table",
                     "instant": true,
                     "intervalFactor": 2,
                     "legendFormat": "",
                     "refId": "D"
                  },
                  {
                     "expr": "(sum(irate(container_network_receive_packets_dropped_total{job=\"kubelet\", cluster=\"$cluster\", namespace=\"$namespace\"}[$__rate_interval])\n* on (namespace,pod)\ngroup_left(workload,workload_type) namespace_workload_pod:kube_pod_owner:relabel{cluster=\"$cluster\", namespace=\"$namespace\", workload_type=\"$type\"}) by (workload))\n",
                     "format": "table",
                     "instant": true,
                     "intervalFactor": 2,
                     "legendFormat": "",
                     "refId": "E"
                  },
                  {
                     "expr": "(sum(irate(container_network_transmit_packets_dropped_total{job=\"kubelet\", cluster=\"$cluster\", namespace=\"$namespace\"}[$__rate_interval])\n* on (namespace,pod)\ngroup_left(workload,workload_type) namespace_workload_pod:kube_pod_owner:relabel{cluster=\"$cluster\", namespace=\"$namespace\", workload_type=\"$type\"}) by (workload))\n",
                     "format": "table",
                     "instant": true,
                     "intervalFactor": 2,
                     "legendFormat": "",
                     "refId": "F"
                  }
               ],
               "thresholds": [ ],
               "timeFrom": null,
               "timeShift": null,
               "title": "Current Network Usage",
               "tooltip": {
                  "shared": false,
                  "sort": 2,
                  "value_type": "individual"
               },
               "transform": "table",
               "type": "table",
               "xaxis": {
                  "buckets": null,
                  "mode": "time",
                  "name": null,
                  "show": true,
                  "values": [ ]
               },
               "yaxes": [
                  {
                     "format": "short",
                     "label": null,
                     "logBase": 1,
                     "max": null,
                     "min": 0,
                     "show": true
                  },
                  {
                     "format": "short",
                     "label": null,
                     "logBase": 1,
                     "max": null,
                     "min": null,
                     "show": false
                  }
               ]
            }
         ],
         "repeat": null,
         "repeatIteration": null,
         "repeatRowId": null,
         "showTitle": true,
         "title": "Current Network Usage",
         "titleSize": "h6"
      },
      {
         "collapse": false,
         "height": "250px",
         "panels": [
            {
               "aliasColors": { },
               "bars": false,
               "dashLength": 10,
               "dashes": false,
               "datasource": "$datasource",
               "fill": 10,
               "id": 6,
               "interval": "1m",
               "legend": {
                  "alignAsTable": true,
                  "avg": false,
                  "current": false,
                  "max": false,
                  "min": false,
                  "rightSide": true,
                  "show": true,
                  "total": false,
                  "values": false
               },
               "lines": true,
               "linewidth": 0,
               "links": [ ],
               "nullPointMode": "null as zero",
               "percentage": false,
               "pointradius": 5,
               "points": false,
               "renderer": "flot",
               "seriesOverrides": [ ],
               "spaceLength": 10,
               "span": 6,
               "stack": true,
               "steppedLine": false,
               "targets": [
                  {
                     "expr": "(sum(irate(container_network_receive_bytes_total{job=\"kubelet\", cluster=\"$cluster\", namespace=\"$namespace\"}[$__rate_interval])\n* on (namespace,pod)\ngroup_left(workload,workload_type) namespace_workload_pod:kube_pod_owner:relabel{cluster=\"$cluster\", namespace=\"$namespace\", workload=~\".+\", workload_type=\"$type\"}) by (workload))\n",
                     "format": "time_series",
                     "intervalFactor": 2,
                     "legendFormat": "{{workload}}",
                     "legendLink": null
                  }
               ],
               "thresholds": [ ],
               "timeFrom": null,
               "timeShift": null,
               "title": "Receive Bandwidth",
               "tooltip": {
                  "shared": false,
                  "sort": 2,
                  "value_type": "individual"
               },
               "type": "graph",
               "xaxis": {
                  "buckets": null,
                  "mode": "time",
                  "name": null,
                  "show": true,
                  "values": [ ]
               },
               "yaxes": [
                  {
                     "format": "Bps",
                     "label": null,
                     "logBase": 1,
                     "max": null,
                     "min": 0,
                     "show": true
                  },
                  {
                     "format": "short",
                     "label": null,
                     "logBase": 1,
                     "max": null,
                     "min": null,
                     "show": false
                  }
               ]
            },
            {
               "aliasColors": { },
               "bars": false,
               "dashLength": 10,
               "dashes": false,
               "datasource": "$datasource",
               "fill": 10,
               "id": 7,
               "interval": "1m",
               "legend": {
                  "alignAsTable": true,
                  "avg": false,
                  "current": false,
                  "max": false,
                  "min": false,
                  "rightSide": true,
                  "show": true,
                  "total": false,
                  "values": false
               },
               "lines": true,
               "linewidth": 0,
               "links": [ ],
               "nullPointMode": "null as zero",
               "percentage": false,
               "pointradius": 5,
               "points": false,
               "renderer": "flot",
               "seriesOverrides": [ ],
               "spaceLength": 10,
               "span": 6,
               "stack": true,
               "steppedLine": false,
               "targets": [
                  {
                     "expr": "(sum(irate(container_network_transmit_bytes_total{job=\"kubelet\", cluster=\"$cluster\", namespace=\"$namespace\"}[$__rate_interval])\n* on (namespace,pod)\ngroup_left(workload,workload_type) namespace_workload_pod:kube_pod_owner:relabel{cluster=\"$cluster\", namespace=\"$namespace\", workload=~\".+\", workload_type=\"$type\"}) by (workload))\n",
                     "format": "time_series",
                     "intervalFactor": 2,
                     "legendFormat": "{{workload}}",
                     "legendLink": null
                  }
               ],
               "thresholds": [ ],
               "timeFrom": null,
               "timeShift": null,
               "title": "Transmit Bandwidth",
               "tooltip": {
                  "shared": false,
                  "sort": 2,
                  "value_type": "individual"
               },
               "type": "graph",
               "xaxis": {
                  "buckets": null,
                  "mode": "time",
                  "name": null,
                  "show": true,
                  "values": [ ]
               },
               "yaxes": [
                  {
                     "format": "Bps",
                     "label": null,
                     "logBase": 1,
                     "max": null,
                     "min": 0,
                     "show": true
                  },
                  {
                     "format": "short",
                     "label": null,
                     "logBase": 1,
                     "max": null,
                     "min": null,
                     "show": false
                  }
               ]
            }
         ],
         "repeat": null,
         "repeatIteration": null,
         "repeatRowId": null,
         "showTitle": true,
         "title": "Bandwidth",
         "titleSize": "h6"
      },
      {
         "collapse": false,
         "height": "250px",
         "panels": [
            {
               "aliasColors": { },
               "bars": false,
               "dashLength": 10,
               "dashes": false,
               "datasource": "$datasource",
               "fill": 10,
               "id": 8,
               "interval": "1m",
               "legend": {
                  "alignAsTable": true,
                  "avg": false,
                  "current": false,
                  "max": false,
                  "min": false,
                  "rightSide": true,
                  "show": true,
                  "total": false,
                  "values": false
               },
               "lines": true,
               "linewidth": 0,
               "links": [ ],
               "nullPointMode": "null as zero",
               "percentage": false,
               "pointradius": 5,
               "points": false,
               "renderer": "flot",
               "seriesOverrides": [ ],
               "spaceLength": 10,
               "span": 6,
               "stack": true,
               "steppedLine": false,
               "targets": [
                  {
                     "expr": "(avg(irate(container_network_receive_bytes_total{job=\"kubelet\", cluster=\"$cluster\", namespace=\"$namespace\"}[$__rate_interval])\n* on (namespace,pod)\ngroup_left(workload,workload_type) namespace_workload_pod:kube_pod_owner:relabel{cluster=\"$cluster\", namespace=\"$namespace\", workload=~\".+\", workload_type=\"$type\"}) by (workload))\n",
                     "format": "time_series",
                     "intervalFactor": 2,
                     "legendFormat": "{{workload}}",
                     "legendLink": null
                  }
               ],
               "thresholds": [ ],
               "timeFrom": null,
               "timeShift": null,
               "title": "Average Container Bandwidth by Workload: Received",
               "tooltip": {
                  "shared": false,
                  "sort": 2,
                  "value_type": "individual"
               },
               "type": "graph",
               "xaxis": {
                  "buckets": null,
                  "mode": "time",
                  "name": null,
                  "show": true,
                  "values": [ ]
               },
               "yaxes": [
                  {
                     "format": "Bps",
                     "label": null,
                     "logBase": 1,
                     "max": null,
                     "min": 0,
                     "show": true
                  },
                  {
                     "format": "short",
                     "label": null,
                     "logBase": 1,
                     "max": null,
                     "min": null,
                     "show": false
                  }
               ]
            },
            {
               "aliasColors": { },
               "bars": false,
               "dashLength": 10,
               "dashes": false,
               "datasource": "$datasource",
               "fill": 10,
               "id": 9,
               "interval": "1m",
               "legend": {
                  "alignAsTable": true,
                  "avg": false,
                  "current": false,
                  "max": false,
                  "min": false,
                  "rightSide": true,
                  "show": true,
                  "total": false,
                  "values": false
               },
               "lines": true,
               "linewidth": 0,
               "links": [ ],
               "nullPointMode": "null as zero",
               "percentage": false,
               "pointradius": 5,
               "points": false,
               "renderer": "flot",
               "seriesOverrides": [ ],
               "spaceLength": 10,
               "span": 6,
               "stack": true,
               "steppedLine": false,
               "targets": [
                  {
                     "expr": "(avg(irate(container_network_transmit_bytes_total{job=\"kubelet\", cluster=\"$cluster\", namespace=\"$namespace\"}[$__rate_interval])\n* on (namespace,pod)\ngroup_left(workload,workload_type) namespace_workload_pod:kube_pod_owner:relabel{cluster=\"$cluster\", namespace=\"$namespace\", workload=~\".+\", workload_type=\"$type\"}) by (workload))\n",
                     "format": "time_series",
                     "intervalFactor": 2,
                     "legendFormat": "{{workload}}",
                     "legendLink": null
                  }
               ],
               "thresholds": [ ],
               "timeFrom": null,
               "timeShift": null,
               "title": "Average Container Bandwidth by Workload: Transmitted",
               "tooltip": {
                  "shared": false,
                  "sort": 2,
                  "value_type": "individual"
               },
               "type": "graph",
               "xaxis": {
                  "buckets": null,
                  "mode": "time",
                  "name": null,
                  "show": true,
                  "values": [ ]
               },
               "yaxes": [
                  {
                     "format": "Bps",
                     "label": null,
                     "logBase": 1,
                     "max": null,
                     "min": 0,
                     "show": true
                  },
                  {
                     "format": "short",
                     "label": null,
                     "logBase": 1,
                     "max": null,
                     "min": null,
                     "show": false
                  }
               ]
            }
         ],
         "repeat": null,
         "repeatIteration": null,
         "repeatRowId": null,
         "showTitle": true,
         "title": "Average Container Bandwidth by Workload",
         "titleSize": "h6"
      },
      {
         "collapse": false,
         "height": "250px",
         "panels": [
            {
               "aliasColors": { },
               "bars": false,
               "dashLength": 10,
               "dashes": false,
               "datasource": "$datasource",
               "fill": 10,
               "id": 10,
               "interval": "1m",
               "legend": {
                  "alignAsTable": true,
                  "avg": false,
                  "current": false,
                  "max": false,
                  "min": false,
                  "rightSide": true,
                  "show": true,
                  "total": false,
                  "values": false
               },
               "lines": true,
               "linewidth": 0,
               "links": [ ],
               "nullPointMode": "null as zero",
               "percentage": false,
               "pointradius": 5,
               "points": false,
               "renderer": "flot",
               "seriesOverrides": [ ],
               "spaceLength": 10,
               "span": 6,
               "stack": true,
               "steppedLine": false,
               "targets": [
                  {
                     "expr": "(sum(irate(container_network_receive_packets_total{job=\"kubelet\", cluster=\"$cluster\", namespace=\"$namespace\"}[$__rate_interval])\n* on (namespace,pod)\ngroup_left(workload,workload_type) namespace_workload_pod:kube_pod_owner:relabel{cluster=\"$cluster\", namespace=\"$namespace\", workload=~\".+\", workload_type=\"$type\"}) by (workload))\n",
                     "format": "time_series",
                     "intervalFactor": 2,
                     "legendFormat": "{{workload}}",
                     "legendLink": null
                  }
               ],
               "thresholds": [ ],
               "timeFrom": null,
               "timeShift": null,
               "title": "Rate of Received Packets",
               "tooltip": {
                  "shared": false,
                  "sort": 2,
                  "value_type": "individual"
               },
               "type": "graph",
               "xaxis": {
                  "buckets": null,
                  "mode": "time",
                  "name": null,
                  "show": true,
                  "values": [ ]
               },
               "yaxes": [
                  {
                     "format": "pps",
                     "label": null,
                     "logBase": 1,
                     "max": null,
                     "min": 0,
                     "show": true
                  },
                  {
                     "format": "short",
                     "label": null,
                     "logBase": 1,
                     "max": null,
                     "min": null,
                     "show": false
                  }
               ]
            },
            {
               "aliasColors": { },
               "bars": false,
               "dashLength": 10,
               "dashes": false,
               "datasource": "$datasource",
               "fill": 10,
               "id": 11,
               "interval": "1m",
               "legend": {
                  "alignAsTable": true,
                  "avg": false,
                  "current": false,
                  "max": false,
                  "min": false,
                  "rightSide": true,
                  "show": true,
                  "total": false,
                  "values": false
               },
               "lines": true,
               "linewidth": 0,
               "links": [ ],
               "nullPointMode": "null as zero",
               "percentage": false,
               "pointradius": 5,
               "points": false,
               "renderer": "flot",
               "seriesOverrides": [ ],
               "spaceLength": 10,
               "span": 6,
               "stack": true,
               "steppedLine": false,
               "targets": [
                  {
                     "expr": "(sum(irate(container_network_transmit_packets_total{job=\"kubelet\", cluster=\"$cluster\", namespace=\"$namespace\"}[$__rate_interval])\n* on (namespace,pod)\ngroup_left(workload,workload_type) namespace_workload_pod:kube_pod_owner:relabel{cluster=\"$cluster\", namespace=\"$namespace\", workload=~\".+\", workload_type=\"$type\"}) by (workload))\n",
                     "format": "time_series",
                     "intervalFactor": 2,
                     "legendFormat": "{{workload}}",
                     "legendLink": null
                  }
               ],
               "thresholds": [ ],
               "timeFrom": null,
               "timeShift": null,
               "title": "Rate of Transmitted Packets",
               "tooltip": {
                  "shared": false,
                  "sort": 2,
                  "value_type": "individual"
               },
               "type": "graph",
               "xaxis": {
                  "buckets": null,
                  "mode": "time",
                  "name": null,
                  "show": true,
                  "values": [ ]
               },
               "yaxes": [
                  {
                     "format": "pps",
                     "label": null,
                     "logBase": 1,
                     "max": null,
                     "min": 0,
                     "show": true
                  },
                  {
                     "format": "short",
                     "label": null,
                     "logBase": 1,
                     "max": null,
                     "min": null,
                     "show": false
                  }
               ]
            }
         ],
         "repeat": null,
         "repeatIteration": null,
         "repeatRowId": null,
         "showTitle": true,
         "title": "Rate of Packets",
         "titleSize": "h6"
      },
      {
         "collapse": false,
         "height": "250px",
         "panels": [
            {
               "aliasColors": { },
               "bars": false,
               "dashLength": 10,
               "dashes": false,
               "datasource": "$datasource",
               "fill": 10,
               "id": 12,
               "interval": "1m",
               "legend": {
                  "alignAsTable": true,
                  "avg": false,
                  "current": false,
                  "max": false,
                  "min": false,
                  "rightSide": true,
                  "show": true,
                  "total": false,
                  "values": false
               },
               "lines": true,
               "linewidth": 0,
               "links": [ ],
               "nullPointMode": "null as zero",
               "percentage": false,
               "pointradius": 5,
               "points": false,
               "renderer": "flot",
               "seriesOverrides": [ ],
               "spaceLength": 10,
               "span": 6,
               "stack": true,
               "steppedLine": false,
               "targets": [
                  {
                     "expr": "(sum(irate(container_network_receive_packets_dropped_total{job=\"kubelet\", cluster=\"$cluster\", namespace=\"$namespace\"}[$__rate_interval])\n* on (namespace,pod)\ngroup_left(workload,workload_type) namespace_workload_pod:kube_pod_owner:relabel{cluster=\"$cluster\", namespace=\"$namespace\", workload=~\".+\", workload_type=\"$type\"}) by (workload))\n",
                     "format": "time_series",
                     "intervalFactor": 2,
                     "legendFormat": "{{workload}}",
                     "legendLink": null
                  }
               ],
               "thresholds": [ ],
               "timeFrom": null,
               "timeShift": null,
               "title": "Rate of Received Packets Dropped",
               "tooltip": {
                  "shared": false,
                  "sort": 2,
                  "value_type": "individual"
               },
               "type": "graph",
               "xaxis": {
                  "buckets": null,
                  "mode": "time",
                  "name": null,
                  "show": true,
                  "values": [ ]
               },
               "yaxes": [
                  {
                     "format": "pps",
                     "label": null,
                     "logBase": 1,
                     "max": null,
                     "min": 0,
                     "show": true
                  },
                  {
                     "format": "short",
                     "label": null,
                     "logBase": 1,
                     "max": null,
                     "min": null,
                     "show": false
                  }
               ]
            },
            {
               "aliasColors": { },
               "bars": false,
               "dashLength": 10,
               "dashes": false,
               "datasource": "$datasource",
               "fill": 10,
               "id": 13,
               "interval": "1m",
               "legend": {
                  "alignAsTable": true,
                  "avg": false,
                  "current": false,
                  "max": false,
                  "min": false,
                  "rightSide": true,
                  "show": true,
                  "total": false,
                  "values": false
               },
               "lines": true,
               "linewidth": 0,
               "links": [ ],
               "nullPointMode": "null as zero",
               "percentage": false,
               "pointradius": 5,
               "points": false,
               "renderer": "flot",
               "seriesOverrides": [ ],
               "spaceLength": 10,
               "span": 6,
               "stack": true,
               "steppedLine": false,
               "targets": [
                  {
                     "expr": "(sum(irate(container_network_transmit_packets_dropped_total{job=\"kubelet\", cluster=\"$cluster\", namespace=\"$namespace\"}[$__rate_interval])\n* on (namespace,pod)\ngroup_left(workload,workload_type) namespace_workload_pod:kube_pod_owner:relabel{cluster=\"$cluster\", namespace=\"$namespace\", workload=~\".+\", workload_type=\"$type\"}) by (workload))\n",
                     "format": "time_series",
                     "intervalFactor": 2,
                     "legendFormat": "{{workload}}",
                     "legendLink": null
                  }
               ],
               "thresholds": [ ],
               "timeFrom": null,
               "timeShift": null,
               "title": "Rate of Transmitted Packets Dropped",
               "tooltip": {
                  "shared": false,
                  "sort": 2,
                  "value_type": "individual"
               },
               "type": "graph",
               "xaxis": {
                  "buckets": null,
                  "mode": "time",
                  "name": null,
                  "show": true,
                  "values": [ ]
               },
               "yaxes": [
                  {
                     "format": "pps",
                     "label": null,
                     "logBase": 1,
                     "max": null,
                     "min": 0,
                     "show": true
                  },
                  {
                     "format": "short",
                     "label": null,
                     "logBase": 1,
                     "max": null,
                     "min": null,
                     "show": false
                  }
               ]
            }
         ],
         "repeat": null,
         "repeatIteration": null,
         "repeatRowId": null,
         "showTitle": true,
         "title": "Rate of Packets Dropped",
         "titleSize": "h6"
      }
   ],
   "schemaVersion": 14,
   "style": "dark",
   "tags": [
      "kubernetes-mixin"
   ],
   "templating": {
      "list": [
         {
            "current": {
               "text": "default",
               "value": "default"
            },
            "hide": 0,
            "label": "Data Source",
            "name": "datasource",
            "options": [ ],
            "query": "prometheus",
            "refresh": 1,
            "regex": "",
            "type": "datasource"
         },
         {
            "allValue": null,
            "current": {
               "text": "",
               "value": ""
            },
            "datasource": "$datasource",
            "hide": 0,
            "includeAll": false,
            "label": null,
            "multi": false,
            "name": "cluster",
            "options": [ ],
            "query": "label_values(up{job=\"kube-state-metrics\"}, cluster)",
            "refresh": 2,
            "regex": "",
            "sort": 1,
            "tagValuesQuery": "",
            "tags": [ ],
            "tagsQuery": "",
            "type": "query",
            "useTags": false
         },
         {
            "allValue": null,
            "current": {
               "text": "",
               "value": ""
            },
            "datasource": "$datasource",
            "hide": 0,
            "includeAll": false,
            "label": null,
            "multi": false,
            "name": "namespace",
            "options": [ ],
            "query": "label_values(kube_pod_info{job=\"kube-state-metrics\", cluster=\"$cluster\"}, namespace)",
            "refresh": 2,
            "regex": "",
            "sort": 1,
            "tagValuesQuery": "",
            "tags": [ ],
            "tagsQuery": "",
            "type": "query",
            "useTags": false
         },
         {
            "allValue": null,
            "auto": false,
            "auto_count": 30,
            "auto_min": "10s",
            "current": {
               "text": "deployment",
               "value": "deployment"
            },
            "datasource": "$datasource",
            "definition": "label_values(namespace_workload_pod:kube_pod_owner:relabel{cluster=\"$cluster\", namespace=\"$namespace\", workload=~\".+\"}, workload_type)",
            "hide": 0,
            "includeAll": false,
            "label": null,
            "multi": false,
            "name": "type",
            "options": [ ],
            "query": "label_values(namespace_workload_pod:kube_pod_owner:relabel{cluster=\"$cluster\", namespace=\"$namespace\", workload=~\".+\"}, workload_type)",
            "refresh": 2,
            "regex": "",
            "skipUrlSync": false,
            "sort": 0,
            "tagValuesQuery": "",
            "tags": [ ],
            "tagsQuery": "",
            "type": "query",
            "useTags": false
         }
      ]
   },
   "time": {
      "from": "now-1h",
      "to": "now"
   },
   "timepicker": {
      "refresh_intervals": [
         "5s",
         "10s",
         "30s",
         "1m",
         "5m",
         "15m",
         "30m",
         "1h",
         "2h",
         "1d"
      ],
      "time_options": [
         "5m",
         "15m",
         "1h",
         "6h",
         "12h",
         "24h",
         "2d",
         "7d",
         "30d"
      ]
   },
   "timezone": "UTC",
   "title": "Kubernetes / Compute Resources / Namespace (Workloads)",
   "uid": "a87fb0d919ec0ea5f6543124e16c42a5",
   "version": 0
}
